{
  "id": 18,
  "contact": {
    "firstName": "Lucas",
    "lastName": "LABIGNE",
    "birthday": "23/01/1996",
    "mail": "lucas.labigne@gmail.com",
    "phone": "0603889608",
    "img": "profil.png"
  },
  "social": {
    "fb": "https://www.facebook.com/lucas.labigne",
    "lkdn": "https://www.linkedin.com/in/lucas-labigne-33617b165/",
    "twtr": "https://twitter.com/Lulu_Lab",
    "insta": "https://www.instagram.com/lucas__labigne/?hl=fr",
    "github": "https://github.com/LucasLBGN",
    "gitlab": "https://gitlab.com/LucasLBGN",
    "so": "",
    "Others": []
  },
  "medias": {
    "pdfCV": "cv.pdf",
    "linkCV": "",
    "realisations": [],
    "video": "https://www.youtube.com/embed/OqweMDSvAZE"
  },
  "badges": [
    { "id": 1, "enabled": true },
    { "id": 2, "enabled": true },
    { "id": 3, "enabled": true },
    { "id": 4, "enabled": true },
    { "id": 5, "enabled": true },
    { "id": 7, "enabled": true },
    { "id": 8, "enabled": true },
    { "id": 13, "enabled": true },
    { "id": 29, "enabled": true },
    { "id": 30, "enabled": true },
    { "id": 34, "enabled": true },
    { "id": 36, "enabled": true },
    { "id": 38, "enabled": true },
    { "id": 39, "enabled": true },
    { "id": 40, "enabled": true },
    { "id": 1004, "enabled": true },
    { "id": 1007, "enabled": true },
    { "id": 1008, "enabled": true },
    { "id": 1023, "enabled": true },
    { "id": 1028, "enabled": true },
    { "id": 1030, "enabled": true },
    { "id": 1031, "enabled": true }
  ],
  "status": { "adopted": true, "promo": "A2 Dev" },
  "comments": []
}
