{
  "id": 5,
  "contact": {
    "firstName": "Nathanael",
    "lastName": "Elisabeth",
    "birthday": "13/10/2000",
    "mail": "elisabeth.nathanael@gmail.com",
    "phone": "0673958772",
    "img": "profil.png"
  },
  "social": {
    "fb": "",
    "lkdn": "https://www.linkedin.com/in/nathana%C3%ABl-elisabeth-a4404a177/",
    "twtr": "",
    "insta": "",
    "git": "",
    "so": "",
    "Others": []
  },
  "medias": {
    "pdfCV": "cv.pdf",
    "linkCV": "",
    "realisations": [
      {
        "id": 1,
        "snapshot": "HarryPotter.png",
        "link": "",
        "name": "HarryPotter",
        "desc": "Tableaux des scores des maisons HarryPotter"
      }
    ],
    "video": "video.mp4"
  },
  "badges": [
    {
      "id": 1,
      "enabled": true
    },
    {
      "id": 2,
      "enabled": true
    },
    {
      "id": 3,
      "enabled": true
    },
    {
      "id": 4,
      "enabled": true
    },
    {
      "id": 7,
      "enabled": true
    },
    {
      "id": 8,
      "enabled": true
    },
    {
      "id": 13,
      "enabled": true
    },
    {
      "id": 24,
      "enabled": true
    },
    {
      "id": 27,
      "enabled": true
    },
    {
      "id": 31,
      "enabled": true
    },
    {
      "id": 34,
      "enabled": true
    },
    {
      "id": 37,
      "enabled": true
    },
    {
      "id": 1025,
      "enabled": true
    },
    {
      "id": 1026,
      "enabled": true
    },
    {
      "id": 1028,
      "enabled": true
    }
  ],
  "status": { "adopted": true, "promo": "A2 Dev" },
  "comments": []
}
